## Interface: 90002
## Title: Ash-Identity
## Notes: Identity-2 fork with different syntax.
## Author: Ash
## Version: 0.1.0
## SavedVariables:AshIdentityDB

embeds.xml

locales/enUS.lua
Ash-Identity.lua
